(kicad_sch (version 20211123) (generator eeschema)

  (uuid 71ee5952-b6de-42f2-8d3e-fb349eb454db)

  (paper "A4")

  (lib_symbols
    (symbol "Connector_Generic:Conn_01x08" (pin_names (offset 1.016) hide) (in_bom yes) (on_board yes)
      (property "Reference" "J" (id 0) (at 0 10.16 0)
        (effects (font (size 1.27 1.27)))
      )
      (property "Value" "Conn_01x08" (id 1) (at 0 -12.7 0)
        (effects (font (size 1.27 1.27)))
      )
      (property "Footprint" "" (id 2) (at 0 0 0)
        (effects (font (size 1.27 1.27)) hide)
      )
      (property "Datasheet" "~" (id 3) (at 0 0 0)
        (effects (font (size 1.27 1.27)) hide)
      )
      (property "ki_keywords" "connector" (id 4) (at 0 0 0)
        (effects (font (size 1.27 1.27)) hide)
      )
      (property "ki_description" "Generic connector, single row, 01x08, script generated (kicad-library-utils/schlib/autogen/connector/)" (id 5) (at 0 0 0)
        (effects (font (size 1.27 1.27)) hide)
      )
      (property "ki_fp_filters" "Connector*:*_1x??_*" (id 6) (at 0 0 0)
        (effects (font (size 1.27 1.27)) hide)
      )
      (symbol "Conn_01x08_1_1"
        (rectangle (start -1.27 -10.033) (end 0 -10.287)
          (stroke (width 0.1524) (type default) (color 0 0 0 0))
          (fill (type none))
        )
        (rectangle (start -1.27 -7.493) (end 0 -7.747)
          (stroke (width 0.1524) (type default) (color 0 0 0 0))
          (fill (type none))
        )
        (rectangle (start -1.27 -4.953) (end 0 -5.207)
          (stroke (width 0.1524) (type default) (color 0 0 0 0))
          (fill (type none))
        )
        (rectangle (start -1.27 -2.413) (end 0 -2.667)
          (stroke (width 0.1524) (type default) (color 0 0 0 0))
          (fill (type none))
        )
        (rectangle (start -1.27 0.127) (end 0 -0.127)
          (stroke (width 0.1524) (type default) (color 0 0 0 0))
          (fill (type none))
        )
        (rectangle (start -1.27 2.667) (end 0 2.413)
          (stroke (width 0.1524) (type default) (color 0 0 0 0))
          (fill (type none))
        )
        (rectangle (start -1.27 5.207) (end 0 4.953)
          (stroke (width 0.1524) (type default) (color 0 0 0 0))
          (fill (type none))
        )
        (rectangle (start -1.27 7.747) (end 0 7.493)
          (stroke (width 0.1524) (type default) (color 0 0 0 0))
          (fill (type none))
        )
        (rectangle (start -1.27 8.89) (end 1.27 -11.43)
          (stroke (width 0.254) (type default) (color 0 0 0 0))
          (fill (type background))
        )
        (pin passive line (at -5.08 7.62 0) (length 3.81)
          (name "Pin_1" (effects (font (size 1.27 1.27))))
          (number "1" (effects (font (size 1.27 1.27))))
        )
        (pin passive line (at -5.08 5.08 0) (length 3.81)
          (name "Pin_2" (effects (font (size 1.27 1.27))))
          (number "2" (effects (font (size 1.27 1.27))))
        )
        (pin passive line (at -5.08 2.54 0) (length 3.81)
          (name "Pin_3" (effects (font (size 1.27 1.27))))
          (number "3" (effects (font (size 1.27 1.27))))
        )
        (pin passive line (at -5.08 0 0) (length 3.81)
          (name "Pin_4" (effects (font (size 1.27 1.27))))
          (number "4" (effects (font (size 1.27 1.27))))
        )
        (pin passive line (at -5.08 -2.54 0) (length 3.81)
          (name "Pin_5" (effects (font (size 1.27 1.27))))
          (number "5" (effects (font (size 1.27 1.27))))
        )
        (pin passive line (at -5.08 -5.08 0) (length 3.81)
          (name "Pin_6" (effects (font (size 1.27 1.27))))
          (number "6" (effects (font (size 1.27 1.27))))
        )
        (pin passive line (at -5.08 -7.62 0) (length 3.81)
          (name "Pin_7" (effects (font (size 1.27 1.27))))
          (number "7" (effects (font (size 1.27 1.27))))
        )
        (pin passive line (at -5.08 -10.16 0) (length 3.81)
          (name "Pin_8" (effects (font (size 1.27 1.27))))
          (number "8" (effects (font (size 1.27 1.27))))
        )
      )
    )
    (symbol "RF_Module:DWM1000" (pin_names (offset 1.016)) (in_bom yes) (on_board yes)
      (property "Reference" "DWM" (id 0) (at 7.62 25.4 0)
        (effects (font (size 1.27 1.27)))
      )
      (property "Value" "DWM1000" (id 1) (at 1.27 3.81 0)
        (effects (font (size 1.27 1.27)))
      )
      (property "Footprint" "RF_Module:DWM1000" (id 2) (at 17.78 -25.4 0)
        (effects (font (size 1.27 1.27)) hide)
      )
      (property "Datasheet" "https://www.decawave.com/sites/default/files/resources/dwm1000-datasheet-v1.3.pdf" (id 3) (at 60.96 -27.94 0)
        (effects (font (size 1.27 1.27)) hide)
      )
      (property "ki_keywords" "DWM1000,Decawave,RF,ranging,UWB" (id 4) (at 0 0 0)
        (effects (font (size 1.27 1.27)) hide)
      )
      (property "ki_description" "Ultra wide band RF module With ranging location capabilities" (id 5) (at 0 0 0)
        (effects (font (size 1.27 1.27)) hide)
      )
      (property "ki_fp_filters" "*DWM1000*" (id 6) (at 0 0 0)
        (effects (font (size 1.27 1.27)) hide)
      )
      (symbol "DWM1000_0_1"
        (rectangle (start 17.78 22.86) (end -17.78 -22.86)
          (stroke (width 0.254) (type default) (color 0 0 0 0))
          (fill (type background))
        )
      )
      (symbol "DWM1000_1_1"
        (pin output line (at -22.86 5.08 0) (length 5.08)
          (name "EXTON" (effects (font (size 1.27 1.27))))
          (number "1" (effects (font (size 1.27 1.27))))
        )
        (pin bidirectional line (at 22.86 -12.7 180) (length 5.08)
          (name "GPIO5/EXTTXE/SPIPOL" (effects (font (size 1.27 1.27))))
          (number "10" (effects (font (size 1.27 1.27))))
        )
        (pin bidirectional line (at 22.86 -10.16 180) (length 5.08)
          (name "GPIO4/EXTPA" (effects (font (size 1.27 1.27))))
          (number "11" (effects (font (size 1.27 1.27))))
        )
        (pin bidirectional line (at 22.86 -7.62 180) (length 5.08)
          (name "GPIO3/TXLED" (effects (font (size 1.27 1.27))))
          (number "12" (effects (font (size 1.27 1.27))))
        )
        (pin bidirectional line (at 22.86 -5.08 180) (length 5.08)
          (name "GPIO2/RXLED" (effects (font (size 1.27 1.27))))
          (number "13" (effects (font (size 1.27 1.27))))
        )
        (pin bidirectional line (at 22.86 -2.54 180) (length 5.08)
          (name "GPIO1/SFDLED" (effects (font (size 1.27 1.27))))
          (number "14" (effects (font (size 1.27 1.27))))
        )
        (pin bidirectional line (at 22.86 0 180) (length 5.08)
          (name "GPIO0/RXOKLED" (effects (font (size 1.27 1.27))))
          (number "15" (effects (font (size 1.27 1.27))))
        )
        (pin power_in line (at -2.54 -27.94 90) (length 5.08)
          (name "VSS" (effects (font (size 1.27 1.27))))
          (number "16" (effects (font (size 1.27 1.27))))
        )
        (pin input line (at 22.86 10.16 180) (length 5.08)
          (name "SPICSn" (effects (font (size 1.27 1.27))))
          (number "17" (effects (font (size 1.27 1.27))))
        )
        (pin input line (at 22.86 12.7 180) (length 5.08)
          (name "SPIMOSI" (effects (font (size 1.27 1.27))))
          (number "18" (effects (font (size 1.27 1.27))))
        )
        (pin output line (at 22.86 15.24 180) (length 5.08)
          (name "SPIMISO" (effects (font (size 1.27 1.27))))
          (number "19" (effects (font (size 1.27 1.27))))
        )
        (pin bidirectional line (at -22.86 2.54 0) (length 5.08)
          (name "WAKEUP" (effects (font (size 1.27 1.27))))
          (number "2" (effects (font (size 1.27 1.27))))
        )
        (pin input line (at 22.86 17.78 180) (length 5.08)
          (name "SPICLK" (effects (font (size 1.27 1.27))))
          (number "20" (effects (font (size 1.27 1.27))))
        )
        (pin power_in line (at 0 -27.94 90) (length 5.08)
          (name "VSS" (effects (font (size 1.27 1.27))))
          (number "21" (effects (font (size 1.27 1.27))))
        )
        (pin bidirectional line (at 22.86 20.32 180) (length 5.08)
          (name "IRQ/GPIO8" (effects (font (size 1.27 1.27))))
          (number "22" (effects (font (size 1.27 1.27))))
        )
        (pin power_in line (at 2.54 -27.94 90) (length 5.08)
          (name "VSS" (effects (font (size 1.27 1.27))))
          (number "23" (effects (font (size 1.27 1.27))))
        )
        (pin power_in line (at 5.08 -27.94 90) (length 5.08)
          (name "VSS" (effects (font (size 1.27 1.27))))
          (number "24" (effects (font (size 1.27 1.27))))
        )
        (pin bidirectional line (at -22.86 0 0) (length 5.08)
          (name "RSTn" (effects (font (size 1.27 1.27))))
          (number "3" (effects (font (size 1.27 1.27))))
        )
        (pin bidirectional line (at -22.86 -2.54 0) (length 5.08)
          (name "GPIO7" (effects (font (size 1.27 1.27))))
          (number "4" (effects (font (size 1.27 1.27))))
        )
        (pin power_in line (at 2.54 27.94 270) (length 5.08)
          (name "VDDAON" (effects (font (size 1.27 1.27))))
          (number "5" (effects (font (size 1.27 1.27))))
        )
        (pin power_in line (at 0 27.94 270) (length 5.08)
          (name "VDD3V3" (effects (font (size 1.27 1.27))))
          (number "6" (effects (font (size 1.27 1.27))))
        )
        (pin power_in line (at -2.54 27.94 270) (length 5.08)
          (name "VDD3V3" (effects (font (size 1.27 1.27))))
          (number "7" (effects (font (size 1.27 1.27))))
        )
        (pin power_in line (at -5.08 -27.94 90) (length 5.08)
          (name "VSS" (effects (font (size 1.27 1.27))))
          (number "8" (effects (font (size 1.27 1.27))))
        )
        (pin bidirectional line (at 22.86 -15.24 180) (length 5.08)
          (name "GPIO6/EXTRXE/SPIHA" (effects (font (size 1.27 1.27))))
          (number "9" (effects (font (size 1.27 1.27))))
        )
      )
    )
    (symbol "power:+5V" (power) (pin_names (offset 0)) (in_bom yes) (on_board yes)
      (property "Reference" "#PWR" (id 0) (at 0 -3.81 0)
        (effects (font (size 1.27 1.27)) hide)
      )
      (property "Value" "+5V" (id 1) (at 0 3.556 0)
        (effects (font (size 1.27 1.27)))
      )
      (property "Footprint" "" (id 2) (at 0 0 0)
        (effects (font (size 1.27 1.27)) hide)
      )
      (property "Datasheet" "" (id 3) (at 0 0 0)
        (effects (font (size 1.27 1.27)) hide)
      )
      (property "ki_keywords" "power-flag" (id 4) (at 0 0 0)
        (effects (font (size 1.27 1.27)) hide)
      )
      (property "ki_description" "Power symbol creates a global label with name \"+5V\"" (id 5) (at 0 0 0)
        (effects (font (size 1.27 1.27)) hide)
      )
      (symbol "+5V_0_1"
        (polyline
          (pts
            (xy -0.762 1.27)
            (xy 0 2.54)
          )
          (stroke (width 0) (type default) (color 0 0 0 0))
          (fill (type none))
        )
        (polyline
          (pts
            (xy 0 0)
            (xy 0 2.54)
          )
          (stroke (width 0) (type default) (color 0 0 0 0))
          (fill (type none))
        )
        (polyline
          (pts
            (xy 0 2.54)
            (xy 0.762 1.27)
          )
          (stroke (width 0) (type default) (color 0 0 0 0))
          (fill (type none))
        )
      )
      (symbol "+5V_1_1"
        (pin power_in line (at 0 0 90) (length 0) hide
          (name "+5V" (effects (font (size 1.27 1.27))))
          (number "1" (effects (font (size 1.27 1.27))))
        )
      )
    )
    (symbol "power:GND" (power) (pin_names (offset 0)) (in_bom yes) (on_board yes)
      (property "Reference" "#PWR" (id 0) (at 0 -6.35 0)
        (effects (font (size 1.27 1.27)) hide)
      )
      (property "Value" "GND" (id 1) (at 0 -3.81 0)
        (effects (font (size 1.27 1.27)))
      )
      (property "Footprint" "" (id 2) (at 0 0 0)
        (effects (font (size 1.27 1.27)) hide)
      )
      (property "Datasheet" "" (id 3) (at 0 0 0)
        (effects (font (size 1.27 1.27)) hide)
      )
      (property "ki_keywords" "power-flag" (id 4) (at 0 0 0)
        (effects (font (size 1.27 1.27)) hide)
      )
      (property "ki_description" "Power symbol creates a global label with name \"GND\" , ground" (id 5) (at 0 0 0)
        (effects (font (size 1.27 1.27)) hide)
      )
      (symbol "GND_0_1"
        (polyline
          (pts
            (xy 0 0)
            (xy 0 -1.27)
            (xy 1.27 -1.27)
            (xy 0 -2.54)
            (xy -1.27 -1.27)
            (xy 0 -1.27)
          )
          (stroke (width 0) (type default) (color 0 0 0 0))
          (fill (type none))
        )
      )
      (symbol "GND_1_1"
        (pin power_in line (at 0 0 270) (length 0) hide
          (name "GND" (effects (font (size 1.27 1.27))))
          (number "1" (effects (font (size 1.27 1.27))))
        )
      )
    )
  )


  (junction (at 144.78 125.73) (diameter 0) (color 0 0 0 0)
    (uuid 0352a780-b94b-4fd1-9ea0-cdd1e8ff8839)
  )
  (junction (at 139.7 125.73) (diameter 0) (color 0 0 0 0)
    (uuid 18085c6d-879d-48b0-885e-32ed840a5aa1)
  )
  (junction (at 142.24 125.73) (diameter 0) (color 0 0 0 0)
    (uuid 2ea5c47f-53c1-4a41-895c-3c3899fe57fc)
  )
  (junction (at 147.32 63.5) (diameter 0) (color 0 0 0 0)
    (uuid 8d8fd55b-6c1c-44c2-b0d2-36e21551bb7c)
  )
  (junction (at 147.32 125.73) (diameter 0) (color 0 0 0 0)
    (uuid a4985606-8212-4841-b62f-850708462e21)
  )
  (junction (at 149.86 125.73) (diameter 0) (color 0 0 0 0)
    (uuid e1d9f356-41da-424e-91cd-fc4e3e0aabc9)
  )

  (wire (pts (xy 185.42 132.08) (xy 185.42 69.85))
    (stroke (width 0) (type default) (color 0 0 0 0))
    (uuid 037b915e-492a-4f30-a257-1f96d96efbe0)
  )
  (wire (pts (xy 179.07 72.39) (xy 191.77 72.39))
    (stroke (width 0) (type default) (color 0 0 0 0))
    (uuid 07bd8f62-6ecc-45e2-9cf3-7d866048d788)
  )
  (wire (pts (xy 187.96 74.93) (xy 191.77 74.93))
    (stroke (width 0) (type default) (color 0 0 0 0))
    (uuid 0b74cdd2-b6ec-4711-a868-fbebf1eb0ecd)
  )
  (wire (pts (xy 184.15 82.55) (xy 167.64 82.55))
    (stroke (width 0) (type default) (color 0 0 0 0))
    (uuid 13b52443-a3c0-42c4-b62c-43e04301a617)
  )
  (wire (pts (xy 97.79 95.25) (xy 121.92 95.25))
    (stroke (width 0) (type default) (color 0 0 0 0))
    (uuid 13bfae9b-045d-495d-a7ca-e40162b9a6b4)
  )
  (wire (pts (xy 184.15 80.01) (xy 184.15 82.55))
    (stroke (width 0) (type default) (color 0 0 0 0))
    (uuid 15ad2d18-f8ab-4405-9a4e-0d063ce4969d)
  )
  (wire (pts (xy 189.23 85.09) (xy 191.77 85.09))
    (stroke (width 0) (type default) (color 0 0 0 0))
    (uuid 1b75de63-782f-480f-bc8f-20625657a2a1)
  )
  (wire (pts (xy 167.64 100.33) (xy 191.77 100.33))
    (stroke (width 0) (type default) (color 0 0 0 0))
    (uuid 2366bd09-9bbf-46b5-b90f-8a9544bbe925)
  )
  (wire (pts (xy 187.96 134.62) (xy 187.96 74.93))
    (stroke (width 0) (type default) (color 0 0 0 0))
    (uuid 254d2133-8d9e-478c-8b4e-7d0047ac5a02)
  )
  (wire (pts (xy 189.23 95.25) (xy 189.23 137.16))
    (stroke (width 0) (type default) (color 0 0 0 0))
    (uuid 29b0032e-1ee0-4d9b-a882-e8e4e3891741)
  )
  (wire (pts (xy 189.23 87.63) (xy 189.23 85.09))
    (stroke (width 0) (type default) (color 0 0 0 0))
    (uuid 2aeb40cf-9e9e-4377-a848-a975e32c0dd4)
  )
  (wire (pts (xy 149.86 129.54) (xy 182.88 129.54))
    (stroke (width 0) (type default) (color 0 0 0 0))
    (uuid 2b730430-2f19-41c7-ab69-cfe75741f468)
  )
  (wire (pts (xy 105.41 105.41) (xy 97.79 105.41))
    (stroke (width 0) (type default) (color 0 0 0 0))
    (uuid 2d9aadc6-653f-4bb6-89f1-3bc44b82f87a)
  )
  (wire (pts (xy 167.64 80.01) (xy 181.61 80.01))
    (stroke (width 0) (type default) (color 0 0 0 0))
    (uuid 2f1c4f8f-35c5-421f-ac8d-b027e377355f)
  )
  (wire (pts (xy 144.78 125.73) (xy 147.32 125.73))
    (stroke (width 0) (type default) (color 0 0 0 0))
    (uuid 2f9db98c-1c86-4509-9382-0dfd9e5e0af1)
  )
  (wire (pts (xy 185.42 69.85) (xy 191.77 69.85))
    (stroke (width 0) (type default) (color 0 0 0 0))
    (uuid 332c55a3-e271-461b-86c5-840a7f6b1ad0)
  )
  (wire (pts (xy 147.32 125.73) (xy 147.32 132.08))
    (stroke (width 0) (type default) (color 0 0 0 0))
    (uuid 39d212ec-032d-4a86-b9af-00e37d56c36e)
  )
  (wire (pts (xy 181.61 80.01) (xy 181.61 77.47))
    (stroke (width 0) (type default) (color 0 0 0 0))
    (uuid 3c1f9207-88a0-4e6b-9c59-abb7474ffb30)
  )
  (wire (pts (xy 147.32 132.08) (xy 185.42 132.08))
    (stroke (width 0) (type default) (color 0 0 0 0))
    (uuid 3efe7094-4788-4fff-8560-d9ba1c6bd906)
  )
  (wire (pts (xy 182.88 129.54) (xy 182.88 67.31))
    (stroke (width 0) (type default) (color 0 0 0 0))
    (uuid 46d5a6ea-c1c4-40bf-a161-0c1772174bec)
  )
  (wire (pts (xy 139.7 125.73) (xy 142.24 125.73))
    (stroke (width 0) (type default) (color 0 0 0 0))
    (uuid 4a043e98-e02a-4347-be35-0d0b9e2025cd)
  )
  (wire (pts (xy 107.95 68.58) (xy 107.95 107.95))
    (stroke (width 0) (type default) (color 0 0 0 0))
    (uuid 4b582921-a49a-41ee-9b3c-7a53d9899bf7)
  )
  (wire (pts (xy 167.64 97.79) (xy 191.77 97.79))
    (stroke (width 0) (type default) (color 0 0 0 0))
    (uuid 4be7e6cb-3a5c-4cb0-8703-9eee77dcde91)
  )
  (wire (pts (xy 147.32 63.5) (xy 102.87 63.5))
    (stroke (width 0) (type default) (color 0 0 0 0))
    (uuid 4d9d331e-260c-4330-9e2a-54b6f1df00e4)
  )
  (wire (pts (xy 142.24 69.85) (xy 142.24 68.58))
    (stroke (width 0) (type default) (color 0 0 0 0))
    (uuid 4eeb0db3-8a6e-4fe9-866a-d143529b48f0)
  )
  (wire (pts (xy 144.78 134.62) (xy 187.96 134.62))
    (stroke (width 0) (type default) (color 0 0 0 0))
    (uuid 5481eadb-a268-4eb5-9686-1ca007bd4889)
  )
  (wire (pts (xy 191.77 95.25) (xy 189.23 95.25))
    (stroke (width 0) (type default) (color 0 0 0 0))
    (uuid 5fcb40dc-299e-4e8e-942a-21bbcd033fba)
  )
  (wire (pts (xy 167.64 113.03) (xy 191.77 113.03))
    (stroke (width 0) (type default) (color 0 0 0 0))
    (uuid 617a5435-e456-42c6-8407-6d3c3aa08185)
  )
  (wire (pts (xy 167.64 77.47) (xy 179.07 77.47))
    (stroke (width 0) (type default) (color 0 0 0 0))
    (uuid 67ddd9c4-3c40-4046-913b-2fe762066dd5)
  )
  (wire (pts (xy 167.64 85.09) (xy 186.69 85.09))
    (stroke (width 0) (type default) (color 0 0 0 0))
    (uuid 6d7548b8-d3b2-45e9-8fa2-3575a94b5701)
  )
  (wire (pts (xy 97.79 92.71) (xy 121.92 92.71))
    (stroke (width 0) (type default) (color 0 0 0 0))
    (uuid 72d30623-16d7-42a6-a174-d4d574133d37)
  )
  (wire (pts (xy 186.69 85.09) (xy 186.69 82.55))
    (stroke (width 0) (type default) (color 0 0 0 0))
    (uuid 7a5a4234-c2a6-4cc8-b885-87185821c5dc)
  )
  (wire (pts (xy 147.32 125.73) (xy 149.86 125.73))
    (stroke (width 0) (type default) (color 0 0 0 0))
    (uuid 7a6d43df-1bf5-4a58-9b25-371879a6b70f)
  )
  (wire (pts (xy 142.24 137.16) (xy 142.24 125.73))
    (stroke (width 0) (type default) (color 0 0 0 0))
    (uuid 7ec96a73-62b7-4ae5-ac04-8a393354e0a3)
  )
  (wire (pts (xy 144.78 66.04) (xy 105.41 66.04))
    (stroke (width 0) (type default) (color 0 0 0 0))
    (uuid 7feeb9e0-ef8f-436f-aa45-5c7d2af56f1b)
  )
  (wire (pts (xy 149.86 125.73) (xy 149.86 129.54))
    (stroke (width 0) (type default) (color 0 0 0 0))
    (uuid 80fd43ef-3870-4f8a-970e-d0e3cd555f06)
  )
  (wire (pts (xy 189.23 137.16) (xy 142.24 137.16))
    (stroke (width 0) (type default) (color 0 0 0 0))
    (uuid 869e0708-a8b2-4d72-9b53-21e919d782d2)
  )
  (wire (pts (xy 105.41 66.04) (xy 105.41 105.41))
    (stroke (width 0) (type default) (color 0 0 0 0))
    (uuid 8763de93-0ef5-4fa1-91e2-fbd53aa5b4c1)
  )
  (wire (pts (xy 182.88 67.31) (xy 191.77 67.31))
    (stroke (width 0) (type default) (color 0 0 0 0))
    (uuid 883d56ac-820b-4973-992f-6e8735c98760)
  )
  (wire (pts (xy 107.95 107.95) (xy 97.79 107.95))
    (stroke (width 0) (type default) (color 0 0 0 0))
    (uuid 968d6df2-cd2e-4397-b028-a79a96799707)
  )
  (wire (pts (xy 147.32 55.88) (xy 147.32 63.5))
    (stroke (width 0) (type default) (color 0 0 0 0))
    (uuid 979003cc-2211-4f76-83de-562a907d76ed)
  )
  (wire (pts (xy 97.79 97.79) (xy 121.92 97.79))
    (stroke (width 0) (type default) (color 0 0 0 0))
    (uuid 9aecbd03-c808-45bf-88a2-c9f5b14f2d56)
  )
  (wire (pts (xy 167.64 102.87) (xy 191.77 102.87))
    (stroke (width 0) (type default) (color 0 0 0 0))
    (uuid 9e34f757-708d-4d55-8e71-344a524b05a3)
  )
  (wire (pts (xy 102.87 102.87) (xy 97.79 102.87))
    (stroke (width 0) (type default) (color 0 0 0 0))
    (uuid a4ca63b8-5486-4c26-ad26-7612be40e1af)
  )
  (wire (pts (xy 144.78 69.85) (xy 144.78 66.04))
    (stroke (width 0) (type default) (color 0 0 0 0))
    (uuid a971a9cf-19ab-4f32-95a9-f1b899a5d979)
  )
  (wire (pts (xy 167.64 107.95) (xy 191.77 107.95))
    (stroke (width 0) (type default) (color 0 0 0 0))
    (uuid aa1854f6-886a-4792-ba89-10b3af27db36)
  )
  (wire (pts (xy 139.7 125.73) (xy 139.7 139.7))
    (stroke (width 0) (type default) (color 0 0 0 0))
    (uuid abfb194f-7764-4984-8aa4-037ed0a112db)
  )
  (wire (pts (xy 167.64 87.63) (xy 189.23 87.63))
    (stroke (width 0) (type default) (color 0 0 0 0))
    (uuid b095274d-abdc-4e7e-b7fd-10e6c178e25f)
  )
  (wire (pts (xy 139.7 125.73) (xy 102.87 125.73))
    (stroke (width 0) (type default) (color 0 0 0 0))
    (uuid bca6bf67-9df0-4c0c-8124-3b542157d600)
  )
  (wire (pts (xy 181.61 77.47) (xy 191.77 77.47))
    (stroke (width 0) (type default) (color 0 0 0 0))
    (uuid c89e3d0f-e58b-4497-bf48-db5378b697da)
  )
  (wire (pts (xy 102.87 110.49) (xy 97.79 110.49))
    (stroke (width 0) (type default) (color 0 0 0 0))
    (uuid cb089c9c-a9ea-4b12-a13d-f62eda13e7b8)
  )
  (wire (pts (xy 149.86 125.73) (xy 151.13 125.73))
    (stroke (width 0) (type default) (color 0 0 0 0))
    (uuid cc291aae-bd59-4800-95bc-834e075d4458)
  )
  (wire (pts (xy 97.79 100.33) (xy 121.92 100.33))
    (stroke (width 0) (type default) (color 0 0 0 0))
    (uuid d7108ee0-f2ee-46df-8309-03c2c2ad69a3)
  )
  (wire (pts (xy 191.77 80.01) (xy 184.15 80.01))
    (stroke (width 0) (type default) (color 0 0 0 0))
    (uuid de1cbcf3-a8cf-411b-ad2c-a4a8ecad745f)
  )
  (wire (pts (xy 179.07 72.39) (xy 179.07 77.47))
    (stroke (width 0) (type default) (color 0 0 0 0))
    (uuid e51f3c98-590b-4749-805c-0527ae7b678a)
  )
  (wire (pts (xy 186.69 82.55) (xy 191.77 82.55))
    (stroke (width 0) (type default) (color 0 0 0 0))
    (uuid e62c5325-e7bf-4b78-ae16-54c3f1ca0380)
  )
  (wire (pts (xy 142.24 68.58) (xy 107.95 68.58))
    (stroke (width 0) (type default) (color 0 0 0 0))
    (uuid f521ce39-247c-49d7-b087-28859c1a3639)
  )
  (wire (pts (xy 167.64 110.49) (xy 191.77 110.49))
    (stroke (width 0) (type default) (color 0 0 0 0))
    (uuid f63e46a8-474b-4265-93d4-28e957688d8a)
  )
  (wire (pts (xy 142.24 125.73) (xy 144.78 125.73))
    (stroke (width 0) (type default) (color 0 0 0 0))
    (uuid f9232670-72f0-4924-8472-03191155614a)
  )
  (wire (pts (xy 102.87 125.73) (xy 102.87 110.49))
    (stroke (width 0) (type default) (color 0 0 0 0))
    (uuid f940b3fa-4e92-479c-b5c4-cf389ff05120)
  )
  (wire (pts (xy 147.32 69.85) (xy 147.32 63.5))
    (stroke (width 0) (type default) (color 0 0 0 0))
    (uuid faf50b74-a5b3-425c-9eec-c1d96c9b18ca)
  )
  (wire (pts (xy 144.78 125.73) (xy 144.78 134.62))
    (stroke (width 0) (type default) (color 0 0 0 0))
    (uuid fdd53f51-68d2-4f34-9d4e-e084df82b065)
  )
  (wire (pts (xy 167.64 105.41) (xy 191.77 105.41))
    (stroke (width 0) (type default) (color 0 0 0 0))
    (uuid fef053f1-51b2-4147-b05c-0857f970e738)
  )
  (wire (pts (xy 102.87 63.5) (xy 102.87 102.87))
    (stroke (width 0) (type default) (color 0 0 0 0))
    (uuid ff0df49e-1558-49e1-9ec4-dbc07cc40559)
  )

  (symbol (lib_id "RF_Module:DWM1000") (at 144.78 97.79 0) (unit 1)
    (in_bom yes) (on_board yes) (fields_autoplaced)
    (uuid 29381d66-6616-4f6a-aa86-a10ba58f52f5)
    (property "Reference" "DWM1" (id 0) (at 149.3394 71.2302 0)
      (effects (font (size 1.27 1.27)) (justify left))
    )
    (property "Value" "DWM1000" (id 1) (at 149.3394 73.7671 0)
      (effects (font (size 1.27 1.27)) (justify left))
    )
    (property "Footprint" "RF_Module:DWM1000" (id 2) (at 162.56 123.19 0)
      (effects (font (size 1.27 1.27)) hide)
    )
    (property "Datasheet" "https://www.decawave.com/sites/default/files/resources/dwm1000-datasheet-v1.3.pdf" (id 3) (at 205.74 125.73 0)
      (effects (font (size 1.27 1.27)) hide)
    )
    (pin "1" (uuid ef3e98f3-9c30-4cde-b5cb-a7af9ba71e5e))
    (pin "10" (uuid 88daa3ef-8193-4311-a7bd-6a7f077705c7))
    (pin "11" (uuid d0af7c6d-c1d0-4d4e-87cf-64fdd84bf019))
    (pin "12" (uuid 7a4d6eb0-f56a-4d68-a628-d5bc871b4016))
    (pin "13" (uuid 2b82d810-2a20-4d89-bde4-16fd96b05496))
    (pin "14" (uuid 98afcb75-0e21-47c9-b20e-74b844c5cc7e))
    (pin "15" (uuid 49138070-286f-4864-82bb-d575157b83f0))
    (pin "16" (uuid 41274fcc-d259-4a77-851f-8b41fd2179e0))
    (pin "17" (uuid d865ea23-81bb-4219-959f-cd969c0a1c8c))
    (pin "18" (uuid 28da5df9-4ca1-4e8b-9251-17490003a4d3))
    (pin "19" (uuid 94ddd4b9-4e1a-49f2-b579-f527e0649326))
    (pin "2" (uuid ea9b477d-2c48-4d14-af7a-9cc4452e333a))
    (pin "20" (uuid ffa79df6-6c63-4099-9e26-2b93bb07fc90))
    (pin "21" (uuid cc9389b5-c18b-4005-9e89-3850978fc2c2))
    (pin "22" (uuid 81f98cd5-bf57-4914-962d-c2fea3eae25b))
    (pin "23" (uuid b048ae00-9510-433f-87d2-4ce0e5a28bd3))
    (pin "24" (uuid b995210b-c3e6-47e0-b85b-86167134f1e6))
    (pin "3" (uuid 394fd0ae-f154-468b-9dd9-4a1d707caf6b))
    (pin "4" (uuid f7aaddb4-9f37-49d5-b5a9-8a5145f31c8d))
    (pin "5" (uuid cf4cea1a-8234-4704-aebe-968b97ee6891))
    (pin "6" (uuid 9cf98c32-4958-4ad0-87eb-cffa3c183229))
    (pin "7" (uuid 1346d7b4-6569-476b-aefc-f141d5a21ef9))
    (pin "8" (uuid b84b6998-4e25-4e0d-9f1c-7e32508a57d2))
    (pin "9" (uuid 80833efe-e825-4b88-bfbf-a9a6a5eadc49))
  )

  (symbol (lib_id "Connector_Generic:Conn_01x08") (at 196.85 105.41 0) (mirror x) (unit 1)
    (in_bom yes) (on_board yes) (fields_autoplaced)
    (uuid 2966396b-b34b-471d-92e0-2c79bae6a522)
    (property "Reference" "J2" (id 0) (at 196.85 90.2802 0))
    (property "Value" "Conn_01x08" (id 1) (at 196.85 92.8171 0))
    (property "Footprint" "Connector_PinHeader_2.54mm:PinHeader_1x08_P2.54mm_Vertical" (id 2) (at 196.85 105.41 0)
      (effects (font (size 1.27 1.27)) hide)
    )
    (property "Datasheet" "~" (id 3) (at 196.85 105.41 0)
      (effects (font (size 1.27 1.27)) hide)
    )
    (pin "1" (uuid 138b29e2-cc12-4a05-8676-68b044c84909))
    (pin "2" (uuid 065574cd-28c5-488c-8074-e24be9e21461))
    (pin "3" (uuid 19e1ace6-4b8b-4df1-8c9f-166bb794425a))
    (pin "4" (uuid ebe74a06-97f9-4fe4-859c-2b94ece5a58e))
    (pin "5" (uuid 436f262e-4d88-4116-b59a-590c46a67281))
    (pin "6" (uuid 855410bb-cf36-4578-aabe-2d0d13e0c94e))
    (pin "7" (uuid 0719f338-eadf-4161-b364-23943e7d7f0b))
    (pin "8" (uuid f6468903-cac7-494d-b578-4e8bcaf9036c))
  )

  (symbol (lib_id "power:GND") (at 139.7 139.7 0) (unit 1)
    (in_bom yes) (on_board yes) (fields_autoplaced)
    (uuid 31e58369-a6ff-4a0b-a359-f7f7aa008241)
    (property "Reference" "#PWR0101" (id 0) (at 139.7 146.05 0)
      (effects (font (size 1.27 1.27)) hide)
    )
    (property "Value" "GND" (id 1) (at 139.7 144.1434 0))
    (property "Footprint" "" (id 2) (at 139.7 139.7 0)
      (effects (font (size 1.27 1.27)) hide)
    )
    (property "Datasheet" "" (id 3) (at 139.7 139.7 0)
      (effects (font (size 1.27 1.27)) hide)
    )
    (pin "1" (uuid c5f0cff3-bb6f-402f-a5f4-95362c0727e6))
  )

  (symbol (lib_id "Connector_Generic:Conn_01x08") (at 196.85 77.47 0) (mirror x) (unit 1)
    (in_bom yes) (on_board yes) (fields_autoplaced)
    (uuid 3b029298-26e4-417c-8292-2915e992d051)
    (property "Reference" "J3" (id 0) (at 196.85 62.3402 0))
    (property "Value" "Conn_01x08" (id 1) (at 196.85 64.8771 0))
    (property "Footprint" "Connector_PinHeader_2.54mm:PinHeader_1x08_P2.54mm_Vertical" (id 2) (at 196.85 77.47 0)
      (effects (font (size 1.27 1.27)) hide)
    )
    (property "Datasheet" "~" (id 3) (at 196.85 77.47 0)
      (effects (font (size 1.27 1.27)) hide)
    )
    (pin "1" (uuid e05524d9-97c0-43c6-a25e-368a89f946f5))
    (pin "2" (uuid 72c503ac-4112-4ce8-a424-bfac168e7f17))
    (pin "3" (uuid a9dad9e2-0803-4af3-8b94-6a78a984afae))
    (pin "4" (uuid ca06267b-308c-43c3-8449-ee54c18ad12a))
    (pin "5" (uuid fd753064-0aca-46d2-a5a8-c7064131b94b))
    (pin "6" (uuid b447715c-c05f-4e4a-8688-7e8ed5c5d466))
    (pin "7" (uuid 03165d19-67be-45a8-9afa-f74b57f54204))
    (pin "8" (uuid 92fd69f2-c623-4608-b02a-5162fbd48883))
  )

  (symbol (lib_id "Connector_Generic:Conn_01x08") (at 92.71 100.33 0) (mirror y) (unit 1)
    (in_bom yes) (on_board yes) (fields_autoplaced)
    (uuid 47412f85-ad2b-4804-b374-61b81f7bec7b)
    (property "Reference" "J1" (id 0) (at 92.71 87.7402 0))
    (property "Value" "Conn_01x08" (id 1) (at 92.71 90.2771 0))
    (property "Footprint" "Connector_PinHeader_2.54mm:PinHeader_1x08_P2.54mm_Vertical" (id 2) (at 92.71 100.33 0)
      (effects (font (size 1.27 1.27)) hide)
    )
    (property "Datasheet" "~" (id 3) (at 92.71 100.33 0)
      (effects (font (size 1.27 1.27)) hide)
    )
    (pin "1" (uuid 5892797c-be65-4f59-a591-462feca63554))
    (pin "2" (uuid 626094e4-d425-404a-856b-1d557b5ba546))
    (pin "3" (uuid da4766e3-68fc-40fe-aa28-fd32f9ddc295))
    (pin "4" (uuid ad3f7568-9074-40fc-b7b9-bd83f435f825))
    (pin "5" (uuid 017ecd11-19ea-4b75-bead-cd18faa2a9ee))
    (pin "6" (uuid 5c847a2a-d755-4a51-8c19-ad81c1e050b7))
    (pin "7" (uuid 9b11af08-73a1-48b9-870f-a50a5e6bf771))
    (pin "8" (uuid 61af326e-489c-41cb-9bdc-64eb3883336c))
  )

  (symbol (lib_id "power:+5V") (at 147.32 55.88 0) (unit 1)
    (in_bom yes) (on_board yes) (fields_autoplaced)
    (uuid 9ecb456f-5aea-4eb3-bbe6-1df65d1577e7)
    (property "Reference" "#PWR0102" (id 0) (at 147.32 59.69 0)
      (effects (font (size 1.27 1.27)) hide)
    )
    (property "Value" "+5V" (id 1) (at 147.32 52.3042 0))
    (property "Footprint" "" (id 2) (at 147.32 55.88 0)
      (effects (font (size 1.27 1.27)) hide)
    )
    (property "Datasheet" "" (id 3) (at 147.32 55.88 0)
      (effects (font (size 1.27 1.27)) hide)
    )
    (pin "1" (uuid b97de2e3-48a9-4dad-b42a-182e584b0cc9))
  )

  (sheet_instances
    (path "/" (page "1"))
  )

  (symbol_instances
    (path "/31e58369-a6ff-4a0b-a359-f7f7aa008241"
      (reference "#PWR0101") (unit 1) (value "GND") (footprint "")
    )
    (path "/9ecb456f-5aea-4eb3-bbe6-1df65d1577e7"
      (reference "#PWR0102") (unit 1) (value "+5V") (footprint "")
    )
    (path "/29381d66-6616-4f6a-aa86-a10ba58f52f5"
      (reference "DWM1") (unit 1) (value "DWM1000") (footprint "RF_Module:DWM1000")
    )
    (path "/47412f85-ad2b-4804-b374-61b81f7bec7b"
      (reference "J1") (unit 1) (value "Conn_01x08") (footprint "Connector_PinHeader_2.54mm:PinHeader_1x08_P2.54mm_Vertical")
    )
    (path "/2966396b-b34b-471d-92e0-2c79bae6a522"
      (reference "J2") (unit 1) (value "Conn_01x08") (footprint "Connector_PinHeader_2.54mm:PinHeader_1x08_P2.54mm_Vertical")
    )
    (path "/3b029298-26e4-417c-8292-2915e992d051"
      (reference "J3") (unit 1) (value "Conn_01x08") (footprint "Connector_PinHeader_2.54mm:PinHeader_1x08_P2.54mm_Vertical")
    )
  )
)
